exc_synapse.vcd
$date
  Thu Apr 14 18:55:47 2016
$end
$version
  GHDL v0
$end
$timescale
  1 fs
$end
$var reg 1 ! clk $end
$var reg 1 " exc_spike $end
$var reg 32 # exc_pot[31:0] $end
$scope module dut $end
$var reg 1 $ clk $end
$var reg 1 % exc_spike $end
$var reg 32 & exc_pot[31:0] $end
$var reg 5 ' d_out_to_addr[4:0] $end
$var reg 32 ( data_to_exc_pot[31:0] $end
$scope module counter_excsyn $end
$var reg 1 ) clk $end
$var reg 1 * rst $end
$var reg 1 + rco[0:0] $end
$var reg 5 , dout[4:0] $end
$var reg 1 - rco_int[0:0] $end
$var reg 5 . dout_int[4:0] $end
$upscope $end
$scope module lut_excsyn $end
$var reg 1 / clk $end
$var reg 5 0 addr[4:0] $end
$var reg 32 1 data[31:0] $end
$comment rom is not handled $end
$upscope $end
$upscope $end
$enddefinitions $end
#0
1!
1"
bUUUUUUUUUUUUUUUUUUUUUUUUUUUUUUUU #
1$
1%
bUUUUUUUUUUUUUUUUUUUUUUUUUUUUUUUU &
b00000 '
b00000000000000000000000000000000 (
1)
1*
b0 +
b00000 ,
b0 -
b00000 .
1/
b00000 0
b00000000000000000000000000000000 1
#5000000
0!
0$
0)
0/
#10000000
1!
0"
b00000000000000000000000000000000 #
1$
0%
b00000000000000000000000000000000 &
b00001 '
1)
0*
b00001 ,
b00001 .
1/
b00001 0
#15000000
0!
0$
0)
0/
#20000000
1!
1$
b00010 '
b00000000000000000000000000000001 (
1)
b00010 ,
b00010 .
1/
b00010 0
b00000000000000000000000000000001 1
#25000000
0!
0$
0)
0/
#30000000
1!
b00000000000000000000000000000001 #
1$
b00000000000000000000000000000001 &
b00011 '
b00000000000000000000000000000010 (
1)
b00011 ,
b00011 .
1/
b00011 0
b00000000000000000000000000000010 1
#35000000
0!
0$
0)
0/
#40000000
1!
b00000000000000000000000000000010 #
1$
b00000000000000000000000000000010 &
b00100 '
b00000000000000000000000000000011 (
1)
b00100 ,
b00100 .
1/
b00100 0
b00000000000000000000000000000011 1
#45000000
0!
0$
0)
0/
#50000000
1!
b00000000000000000000000000000011 #
1$
b00000000000000000000000000000011 &
b00101 '
b00101010100010101010001010101010 (
1)
b00101 ,
b00101 .
1/
b00101 0
b00101010100010101010001010101010 1
#55000000
0!
0$
0)
0/
#60000000
1!
b00101010100010101010001010101010 #
1$
b00101010100010101010001010101010 &
b00110 '
b00101010100010101010001010101011 (
1)
b00110 ,
b00110 .
1/
b00110 0
b00101010100010101010001010101011 1
#65000000
0!
0$
0)
0/
#70000000
1!
b00101010100010101010001010101011 #
1$
b00101010100010101010001010101011 &
b00111 '
b10101010100010101010001010101010 (
1)
b00111 ,
b00111 .
1/
b00111 0
b10101010100010101010001010101010 1
#75000000
0!
0$
0)
0/
#80000000
1!
b10101010100010101010001010101010 #
1$
b10101010100010101010001010101010 &
b01000 '
b10101010100010101010001010101011 (
1)
b01000 ,
b01000 .
1/
b01000 0
b10101010100010101010001010101011 1
#85000000
0!
0$
0)
0/
#90000000
1!
b10101010100010101010001010101011 #
1$
b10101010100010101010001010101011 &
b01001 '
b00101010100010101010001010101010 (
1)
b01001 ,
b01001 .
1/
b01001 0
b00101010100010101010001010101010 1
#95000000
0!
0$
0)
0/
#100000000
1!
b00101010100010101010001010101010 #
1$
b00101010100010101010001010101010 &
b01010 '
b00101010100010101010001010101011 (
1)
b01010 ,
b01010 .
1/
b01010 0
b00101010100010101010001010101011 1
#105000000
0!
0$
0)
0/
#110000000
1!
b00101010100010101010001010101011 #
1$
b00101010100010101010001010101011 &
b01011 '
b10101010100010101010001010101010 (
1)
b01011 ,
b01011 .
1/
b01011 0
b10101010100010101010001010101010 1
#115000000
0!
0$
0)
0/
#120000000
1!
b10101010100010101010001010101010 #
1$
b10101010100010101010001010101010 &
b01100 '
b10101010100010101010001010101011 (
1)
b01100 ,
b01100 .
1/
b01100 0
b10101010100010101010001010101011 1
#125000000
0!
0$
0)
0/
#130000000
1!
b10101010100010101010001010101011 #
1$
b10101010100010101010001010101011 &
b01101 '
b00101010100010101010001010101010 (
1)
b01101 ,
b01101 .
1/
b01101 0
b00101010100010101010001010101010 1
#135000000
0!
0$
0)
0/
#140000000
1!
b00101010100010101010001010101010 #
1$
b00101010100010101010001010101010 &
b01110 '
b00101010100010101010001010101011 (
1)
b01110 ,
b01110 .
1/
b01110 0
b00101010100010101010001010101011 1
#145000000
0!
0$
0)
0/
#150000000
1!
b00101010100010101010001010101011 #
1$
b00101010100010101010001010101011 &
b01111 '
b10101010100010101010001010101010 (
1)
b01111 ,
b01111 .
1/
b01111 0
b10101010100010101010001010101010 1
#155000000
0!
0$
0)
0/
#160000000
1!
b10101010100010101010001010101010 #
1$
b10101010100010101010001010101010 &
b10000 '
b10101010100010101010001010101011 (
1)
b10000 ,
b10000 .
1/
b10000 0
b10101010100010101010001010101011 1
#165000000
0!
0$
0)
0/
#170000000
1!
1"
b10101010100010101010001010101011 #
1$
1%
b10101010100010101010001010101011 &
b00000 '
b00101010100010101010001010101010 (
1)
1*
b00000 ,
b00000 .
1/
b00000 0
b00101010100010101010001010101010 1
#175000000
0!
0$
0)
0/
#180000000
1!
0"
b00101010100010101010001010101010 #
1$
0%
b00101010100010101010001010101010 &
b00001 '
b00000000000000000000000000000000 (
1)
0*
b00001 ,
b00001 .
1/
b00001 0
b00000000000000000000000000000000 1
#185000000
0!
0$
0)
0/
#190000000
1!
b00000000000000000000000000000000 #
1$
b00000000000000000000000000000000 &
b00010 '
b00000000000000000000000000000001 (
1)
b00010 ,
b00010 .
1/
b00010 0
b00000000000000000000000000000001 1
#195000000
0!
0$
0)
0/
#200000000
1!
b00000000000000000000000000000001 #
1$
b00000000000000000000000000000001 &
b00011 '
b00000000000000000000000000000010 (
1)
b00011 ,
b00011 .
1/
b00011 0
b00000000000000000000000000000010 1
#205000000
0!
0$
0)
0/
#210000000
1!
b00000000000000000000000000000010 #
1$
b00000000000000000000000000000010 &
b00100 '
b00000000000000000000000000000011 (
1)
b00100 ,
b00100 .
1/
b00100 0
b00000000000000000000000000000011 1
#215000000
0!
0$
0)
0/
#220000000
1!
b00000000000000000000000000000011 #
1$
b00000000000000000000000000000011 &
b00101 '
b00101010100010101010001010101010 (
1)
b00101 ,
b00101 .
1/
b00101 0
b00101010100010101010001010101010 1
#225000000
0!
0$
0)
0/
#230000000
1!
b00101010100010101010001010101010 #
1$
b00101010100010101010001010101010 &
b00110 '
b00101010100010101010001010101011 (
1)
b00110 ,
b00110 .
1/
b00110 0
b00101010100010101010001010101011 1
#235000000
0!
0$
0)
0/
#240000000
1!
b00101010100010101010001010101011 #
1$
b00101010100010101010001010101011 &
b00111 '
b10101010100010101010001010101010 (
1)
b00111 ,
b00111 .
1/
b00111 0
b10101010100010101010001010101010 1
#245000000
0!
0$
0)
0/
#250000000
1!
b10101010100010101010001010101010 #
1$
b10101010100010101010001010101010 &
b01000 '
b10101010100010101010001010101011 (
1)
b01000 ,
b01000 .
1/
b01000 0
b10101010100010101010001010101011 1
#255000000
0!
0$
0)
0/
#260000000
1!
b10101010100010101010001010101011 #
1$
b10101010100010101010001010101011 &
b01001 '
b00101010100010101010001010101010 (
1)
b01001 ,
b01001 .
1/
b01001 0
b00101010100010101010001010101010 1
#265000000
0!
0$
0)
0/
#270000000
1!
b00101010100010101010001010101010 #
1$
b00101010100010101010001010101010 &
b01010 '
b00101010100010101010001010101011 (
1)
b01010 ,
b01010 .
1/
b01010 0
b00101010100010101010001010101011 1
#275000000
0!
0$
0)
0/
#280000000
1!
b00101010100010101010001010101011 #
1$
b00101010100010101010001010101011 &
b01011 '
b10101010100010101010001010101010 (
1)
b01011 ,
b01011 .
1/
b01011 0
b10101010100010101010001010101010 1
#285000000
0!
0$
0)
0/
#290000000
1!
b10101010100010101010001010101010 #
1$
b10101010100010101010001010101010 &
b01100 '
b10101010100010101010001010101011 (
1)
b01100 ,
b01100 .
1/
b01100 0
b10101010100010101010001010101011 1
#295000000
0!
0$
0)
0/
#300000000
1!
b10101010100010101010001010101011 #
1$
b10101010100010101010001010101011 &
b01101 '
b00101010100010101010001010101010 (
1)
b01101 ,
b01101 .
1/
b01101 0
b00101010100010101010001010101010 1
#305000000
0!
0$
0)
0/
#310000000
1!
b00101010100010101010001010101010 #
1$
b00101010100010101010001010101010 &
b01110 '
b00101010100010101010001010101011 (
1)
b01110 ,
b01110 .
1/
b01110 0
b00101010100010101010001010101011 1
#315000000
0!
0$
0)
0/
#320000000
1!
b00101010100010101010001010101011 #
1$
b00101010100010101010001010101011 &
b01111 '
b10101010100010101010001010101010 (
1)
b01111 ,
b01111 .
1/
b01111 0
b10101010100010101010001010101010 1
#325000000
0!
0$
0)
0/
#330000000
1!
b10101010100010101010001010101010 #
1$
b10101010100010101010001010101010 &
b10000 '
b10101010100010101010001010101011 (
1)
b10000 ,
b10000 .
1/
b10000 0
b10101010100010101010001010101011 1
#335000000
0!
0$
0)
0/
#340000000
1!
b10101010100010101010001010101011 #
1$
b10101010100010101010001010101011 &
b10001 '
b00101010100010101010001010101010 (
1)
b10001 ,
b10001 .
1/
b10001 0
b00101010100010101010001010101010 1
#345000000
0!
0$
0)
0/
#350000000
1!
b00101010100010101010001010101010 #
1$
b00101010100010101010001010101010 &
b10010 '
b00101010100010101010001010101011 (
1)
b10010 ,
b10010 .
1/
b10010 0
b00101010100010101010001010101011 1
#355000000
0!
0$
0)
0/
#360000000
1!
b00101010100010101010001010101011 #
1$
b00101010100010101010001010101011 &
b10011 '
b10101010100010101010001010101010 (
1)
b10011 ,
b10011 .
1/
b10011 0
b10101010100010101010001010101010 1
#365000000
0!
0$
0)
0/
#370000000
1!
b10101010100010101010001010101010 #
1$
b10101010100010101010001010101010 &
b10100 '
b10101010100010101010001010101011 (
1)
b10100 ,
b10100 .
1/
b10100 0
b10101010100010101010001010101011 1
#375000000
0!
0$
0)
0/
#380000000
1!
b10101010100010101010001010101011 #
1$
b10101010100010101010001010101011 &
b10101 '
b00101010100010101010001010101010 (
1)
b10101 ,
b10101 .
1/
b10101 0
b00101010100010101010001010101010 1
#385000000
0!
0$
0)
0/
#390000000
1!
b00101010100010101010001010101010 #
1$
b00101010100010101010001010101010 &
b10110 '
b00101010100010101010001010101011 (
1)
b10110 ,
b10110 .
1/
b10110 0
b00101010100010101010001010101011 1
#395000000
0!
0$
0)
0/
#400000000
1!
b00101010100010101010001010101011 #
1$
b00101010100010101010001010101011 &
b10111 '
b10101010100010101010001010101010 (
1)
b10111 ,
b10111 .
1/
b10111 0
b10101010100010101010001010101010 1
#405000000
0!
0$
0)
0/
#410000000
1!
b10101010100010101010001010101010 #
1$
b10101010100010101010001010101010 &
b11000 '
b10101010100010101010001010101011 (
1)
b11000 ,
b11000 .
1/
b11000 0
b10101010100010101010001010101011 1
#415000000
0!
0$
0)
0/
#420000000
1!
b10101010100010101010001010101011 #
1$
b10101010100010101010001010101011 &
b11001 '
b00101010100010101010001010101010 (
1)
b11001 ,
b11001 .
1/
b11001 0
b00101010100010101010001010101010 1
#425000000
0!
0$
0)
0/
#430000000
1!
b00101010100010101010001010101010 #
1$
b00101010100010101010001010101010 &
b11010 '
b00101010100010101010001010101011 (
1)
b11010 ,
b11010 .
1/
b11010 0
b00101010100010101010001010101011 1
#435000000
0!
0$
0)
0/
#440000000
1!
b00101010100010101010001010101011 #
1$
b00101010100010101010001010101011 &
b11011 '
b10101010100010101010001010101010 (
1)
b11011 ,
b11011 .
1/
b11011 0
b10101010100010101010001010101010 1
#445000000
0!
0$
0)
0/
#450000000
1!
b10101010100010101010001010101010 #
1$
b10101010100010101010001010101010 &
b11100 '
b10101010100010101010001010101011 (
1)
b11100 ,
b11100 .
1/
b11100 0
b10101010100010101010001010101011 1
#455000000
0!
0$
0)
0/
#460000000
1!
b10101010100010101010001010101011 #
1$
b10101010100010101010001010101011 &
b11101 '
b00101010100010101010001010101010 (
1)
b11101 ,
b11101 .
1/
b11101 0
b00101010100010101010001010101010 1
#465000000
0!
0$
0)
0/
#470000000
1!
b00101010100010101010001010101010 #
1$
b00101010100010101010001010101010 &
b11110 '
b00101010100010101010001010101011 (
1)
b11110 ,
b11110 .
1/
b11110 0
b00101010100010101010001010101011 1
#475000000
0!
0$
0)
0/
#480000000
1!
b00101010100010101010001010101011 #
1$
b00101010100010101010001010101011 &
b11111 '
b01111111111111111111111111111111 (
1)
b1 +
b11111 ,
b1 -
b11111 .
1/
b11111 0
b01111111111111111111111111111111 1
#485000000
0!
0$
0)
0/
#490000000
1!
b01111111111111111111111111111111 #
1$
b01111111111111111111111111111111 &
b11111111111111111111111111111111 (
1)
1/
b11111111111111111111111111111111 1
#495000000
0!
0$
0)
0/
#500000000
1!
1"
b11111111111111111111111111111111 #
1$
1%
b11111111111111111111111111111111 &
b00000 '
1)
1*
b0 +
b00000 ,
b0 -
b00000 .
1/
b00000 0
#505000000
0!
0$
0)
0/
#510000000
1!
0"
1$
0%
b00001 '
b00000000000000000000000000000000 (
1)
0*
b00001 ,
b00001 .
1/
b00001 0
b00000000000000000000000000000000 1
#515000000
0!
0$
0)
0/
#520000000
1!
b00000000000000000000000000000000 #
1$
b00000000000000000000000000000000 &
b00010 '
b00000000000000000000000000000001 (
1)
b00010 ,
b00010 .
1/
b00010 0
b00000000000000000000000000000001 1
#525000000
0!
0$
0)
0/
#530000000
1!
b00000000000000000000000000000001 #
1$
b00000000000000000000000000000001 &
b00011 '
b00000000000000000000000000000010 (
1)
b00011 ,
b00011 .
1/
b00011 0
b00000000000000000000000000000010 1
#535000000
0!
0$
0)
0/
#540000000
1!
b00000000000000000000000000000010 #
1$
b00000000000000000000000000000010 &
b00100 '
b00000000000000000000000000000011 (
1)
b00100 ,
b00100 .
1/
b00100 0
b00000000000000000000000000000011 1
#545000000
0!
0$
0)
0/
#550000000
1!
b00000000000000000000000000000011 #
1$
b00000000000000000000000000000011 &
b00101 '
b00101010100010101010001010101010 (
1)
b00101 ,
b00101 .
1/
b00101 0
b00101010100010101010001010101010 1
#555000000
0!
0$
0)
0/
#560000000
1!
b00101010100010101010001010101010 #
1$
b00101010100010101010001010101010 &
b00110 '
b00101010100010101010001010101011 (
1)
b00110 ,
b00110 .
1/
b00110 0
b00101010100010101010001010101011 1
#565000000
0!
0$
0)
0/
#570000000
1!
b00101010100010101010001010101011 #
1$
b00101010100010101010001010101011 &
b00111 '
b10101010100010101010001010101010 (
1)
b00111 ,
b00111 .
1/
b00111 0
b10101010100010101010001010101010 1
#575000000
0!
0$
0)
0/
#580000000
1!
b10101010100010101010001010101010 #
1$
b10101010100010101010001010101010 &
b01000 '
b10101010100010101010001010101011 (
1)
b01000 ,
b01000 .
1/
b01000 0
b10101010100010101010001010101011 1
#585000000
0!
0$
0)
0/
#590000000
1!
b10101010100010101010001010101011 #
1$
b10101010100010101010001010101011 &
b01001 '
b00101010100010101010001010101010 (
1)
b01001 ,
b01001 .
1/
b01001 0
b00101010100010101010001010101010 1
#595000000
0!
0$
0)
0/
#600000000
1!
b00101010100010101010001010101010 #
1$
b00101010100010101010001010101010 &
b01010 '
b00101010100010101010001010101011 (
1)
b01010 ,
b01010 .
1/
b01010 0
b00101010100010101010001010101011 1
#605000000
0!
0$
0)
0/
#610000000
1!
b00101010100010101010001010101011 #
1$
b00101010100010101010001010101011 &
b01011 '
b10101010100010101010001010101010 (
1)
b01011 ,
b01011 .
1/
b01011 0
b10101010100010101010001010101010 1
#615000000
0!
0$
0)
0/
#620000000
1!
b10101010100010101010001010101010 #
1$
b10101010100010101010001010101010 &
b01100 '
b10101010100010101010001010101011 (
1)
b01100 ,
b01100 .
1/
b01100 0
b10101010100010101010001010101011 1
#625000000
0!
0$
0)
0/
#630000000
1!
b10101010100010101010001010101011 #
1$
b10101010100010101010001010101011 &
b01101 '
b00101010100010101010001010101010 (
1)
b01101 ,
b01101 .
1/
b01101 0
b00101010100010101010001010101010 1
#635000000
0!
0$
0)
0/
#640000000
1!
b00101010100010101010001010101010 #
1$
b00101010100010101010001010101010 &
b01110 '
b00101010100010101010001010101011 (
1)
b01110 ,
b01110 .
1/
b01110 0
b00101010100010101010001010101011 1
#645000000
0!
0$
0)
0/
#650000000
1!
b00101010100010101010001010101011 #
1$
b00101010100010101010001010101011 &
b01111 '
b10101010100010101010001010101010 (
1)
b01111 ,
b01111 .
1/
b01111 0
b10101010100010101010001010101010 1
#655000000
0!
0$
0)
0/
#660000000
1!
b10101010100010101010001010101010 #
1$
b10101010100010101010001010101010 &
b10000 '
b10101010100010101010001010101011 (
1)
b10000 ,
b10000 .
1/
b10000 0
b10101010100010101010001010101011 1
#665000000
0!
0$
0)
0/
#670000000
1!
1"
b10101010100010101010001010101011 #
1$
1%
b10101010100010101010001010101011 &
b00000 '
b00101010100010101010001010101010 (
1)
1*
b00000 ,
b00000 .
1/
b00000 0
b00101010100010101010001010101010 1
#675000000
0!
0$
0)
0/
#680000000
1!
0"
b00101010100010101010001010101010 #
1$
0%
b00101010100010101010001010101010 &
b00001 '
b00000000000000000000000000000000 (
1)
0*
b00001 ,
b00001 .
1/
b00001 0
b00000000000000000000000000000000 1
#685000000
0!
0$
0)
0/
#690000000
1!
b00000000000000000000000000000000 #
1$
b00000000000000000000000000000000 &
b00010 '
b00000000000000000000000000000001 (
1)
b00010 ,
b00010 .
1/
b00010 0
b00000000000000000000000000000001 1
#695000000
0!
0$
0)
0/
#700000000
1!
b00000000000000000000000000000001 #
1$
b00000000000000000000000000000001 &
b00011 '
b00000000000000000000000000000010 (
1)
b00011 ,
b00011 .
1/
b00011 0
b00000000000000000000000000000010 1
#705000000
0!
0$
0)
0/
#710000000
1!
b00000000000000000000000000000010 #
1$
b00000000000000000000000000000010 &
b00100 '
b00000000000000000000000000000011 (
1)
b00100 ,
b00100 .
1/
b00100 0
b00000000000000000000000000000011 1
#715000000
0!
0$
0)
0/
#720000000
1!
b00000000000000000000000000000011 #
1$
b00000000000000000000000000000011 &
b00101 '
b00101010100010101010001010101010 (
1)
b00101 ,
b00101 .
1/
b00101 0
b00101010100010101010001010101010 1
#725000000
0!
0$
0)
0/
#730000000
1!
b00101010100010101010001010101010 #
1$
b00101010100010101010001010101010 &
b00110 '
b00101010100010101010001010101011 (
1)
b00110 ,
b00110 .
1/
b00110 0
b00101010100010101010001010101011 1
#735000000
0!
0$
0)
0/
#740000000
1!
b00101010100010101010001010101011 #
1$
b00101010100010101010001010101011 &
b00111 '
b10101010100010101010001010101010 (
1)
b00111 ,
b00111 .
1/
b00111 0
b10101010100010101010001010101010 1
#745000000
0!
0$
0)
0/
#750000000
1!
b10101010100010101010001010101010 #
1$
b10101010100010101010001010101010 &
b01000 '
b10101010100010101010001010101011 (
1)
b01000 ,
b01000 .
1/
b01000 0
b10101010100010101010001010101011 1
#755000000
0!
0$
0)
0/
#760000000
1!
b10101010100010101010001010101011 #
1$
b10101010100010101010001010101011 &
b01001 '
b00101010100010101010001010101010 (
1)
b01001 ,
b01001 .
1/
b01001 0
b00101010100010101010001010101010 1
#765000000
0!
0$
0)
0/
#770000000
1!
b00101010100010101010001010101010 #
1$
b00101010100010101010001010101010 &
b01010 '
b00101010100010101010001010101011 (
1)
b01010 ,
b01010 .
1/
b01010 0
b00101010100010101010001010101011 1
#775000000
0!
0$
0)
0/
#780000000
1!
b00101010100010101010001010101011 #
1$
b00101010100010101010001010101011 &
b01011 '
b10101010100010101010001010101010 (
1)
b01011 ,
b01011 .
1/
b01011 0
b10101010100010101010001010101010 1
#785000000
0!
0$
0)
0/
#790000000
1!
b10101010100010101010001010101010 #
1$
b10101010100010101010001010101010 &
b01100 '
b10101010100010101010001010101011 (
1)
b01100 ,
b01100 .
1/
b01100 0
b10101010100010101010001010101011 1
#795000000
0!
0$
0)
0/
#800000000
1!
b10101010100010101010001010101011 #
1$
b10101010100010101010001010101011 &
b01101 '
b00101010100010101010001010101010 (
1)
b01101 ,
b01101 .
1/
b01101 0
b00101010100010101010001010101010 1
#805000000
0!
0$
0)
0/
#810000000
1!
b00101010100010101010001010101010 #
1$
b00101010100010101010001010101010 &
b01110 '
b00101010100010101010001010101011 (
1)
b01110 ,
b01110 .
1/
b01110 0
b00101010100010101010001010101011 1
#815000000
0!
0$
0)
0/
#820000000
1!
b00101010100010101010001010101011 #
1$
b00101010100010101010001010101011 &
b01111 '
b10101010100010101010001010101010 (
1)
b01111 ,
b01111 .
1/
b01111 0
b10101010100010101010001010101010 1
#825000000
0!
0$
0)
0/
#830000000
1!
b10101010100010101010001010101010 #
1$
b10101010100010101010001010101010 &
b10000 '
b10101010100010101010001010101011 (
1)
b10000 ,
b10000 .
1/
b10000 0
b10101010100010101010001010101011 1
#835000000
0!
0$
0)
0/
#840000000
1!
b10101010100010101010001010101011 #
1$
b10101010100010101010001010101011 &
b10001 '
b00101010100010101010001010101010 (
1)
b10001 ,
b10001 .
1/
b10001 0
b00101010100010101010001010101010 1
#845000000
0!
0$
0)
0/
#850000000
1!
b00101010100010101010001010101010 #
1$
b00101010100010101010001010101010 &
b10010 '
b00101010100010101010001010101011 (
1)
b10010 ,
b10010 .
1/
b10010 0
b00101010100010101010001010101011 1
#855000000
0!
0$
0)
0/
#860000000
1!
b00101010100010101010001010101011 #
1$
b00101010100010101010001010101011 &
b10011 '
b10101010100010101010001010101010 (
1)
b10011 ,
b10011 .
1/
b10011 0
b10101010100010101010001010101010 1
#865000000
0!
0$
0)
0/
#870000000
1!
b10101010100010101010001010101010 #
1$
b10101010100010101010001010101010 &
b10100 '
b10101010100010101010001010101011 (
1)
b10100 ,
b10100 .
1/
b10100 0
b10101010100010101010001010101011 1
#875000000
0!
0$
0)
0/
#880000000
1!
b10101010100010101010001010101011 #
1$
b10101010100010101010001010101011 &
b10101 '
b00101010100010101010001010101010 (
1)
b10101 ,
b10101 .
1/
b10101 0
b00101010100010101010001010101010 1
#885000000
0!
0$
0)
0/
#890000000
1!
b00101010100010101010001010101010 #
1$
b00101010100010101010001010101010 &
b10110 '
b00101010100010101010001010101011 (
1)
b10110 ,
b10110 .
1/
b10110 0
b00101010100010101010001010101011 1
#895000000
0!
0$
0)
0/
#900000000
1!
b00101010100010101010001010101011 #
1$
b00101010100010101010001010101011 &
b10111 '
b10101010100010101010001010101010 (
1)
b10111 ,
b10111 .
1/
b10111 0
b10101010100010101010001010101010 1
#905000000
0!
0$
0)
0/
#910000000
1!
b10101010100010101010001010101010 #
1$
b10101010100010101010001010101010 &
b11000 '
b10101010100010101010001010101011 (
1)
b11000 ,
b11000 .
1/
b11000 0
b10101010100010101010001010101011 1
#915000000
0!
0$
0)
0/
#920000000
1!
b10101010100010101010001010101011 #
1$
b10101010100010101010001010101011 &
b11001 '
b00101010100010101010001010101010 (
1)
b11001 ,
b11001 .
1/
b11001 0
b00101010100010101010001010101010 1
#925000000
0!
0$
0)
0/
#930000000
1!
b00101010100010101010001010101010 #
1$
b00101010100010101010001010101010 &
b11010 '
b00101010100010101010001010101011 (
1)
b11010 ,
b11010 .
1/
b11010 0
b00101010100010101010001010101011 1
#935000000
0!
0$
0)
0/
#940000000
1!
b00101010100010101010001010101011 #
1$
b00101010100010101010001010101011 &
b11011 '
b10101010100010101010001010101010 (
1)
b11011 ,
b11011 .
1/
b11011 0
b10101010100010101010001010101010 1
#945000000
0!
0$
0)
0/
#950000000
1!
b10101010100010101010001010101010 #
1$
b10101010100010101010001010101010 &
b11100 '
b10101010100010101010001010101011 (
1)
b11100 ,
b11100 .
1/
b11100 0
b10101010100010101010001010101011 1
#955000000
0!
0$
0)
0/
#960000000
1!
b10101010100010101010001010101011 #
1$
b10101010100010101010001010101011 &
b11101 '
b00101010100010101010001010101010 (
1)
b11101 ,
b11101 .
1/
b11101 0
b00101010100010101010001010101010 1
#965000000
0!
0$
0)
0/
#970000000
1!
b00101010100010101010001010101010 #
1$
b00101010100010101010001010101010 &
b11110 '
b00101010100010101010001010101011 (
1)
b11110 ,
b11110 .
1/
b11110 0
b00101010100010101010001010101011 1
#975000000
0!
0$
0)
0/
#980000000
1!
b00101010100010101010001010101011 #
1$
b00101010100010101010001010101011 &
b11111 '
b01111111111111111111111111111111 (
1)
b1 +
b11111 ,
b1 -
b11111 .
1/
b11111 0
b01111111111111111111111111111111 1
#985000000
0!
0$
0)
0/
#990000000
1!
b01111111111111111111111111111111 #
1$
b01111111111111111111111111111111 &
b11111111111111111111111111111111 (
1)
1/
b11111111111111111111111111111111 1
#995000000
0!
0$
0)
0/
#1000000000
1!
1"
b11111111111111111111111111111111 #
1$
1%
b11111111111111111111111111111111 &
b00000 '
1)
1*
b0 +
b00000 ,
b0 -
b00000 .
1/
b00000 0
#1005000000
0!
0$
0)
0/
#1010000000
1!
0"
1$
0%
b00001 '
b00000000000000000000000000000000 (
1)
0*
b00001 ,
b00001 .
1/
b00001 0
b00000000000000000000000000000000 1
#1015000000
0!
0$
0)
0/
#1020000000
1!
b00000000000000000000000000000000 #
1$
b00000000000000000000000000000000 &
b00010 '
b00000000000000000000000000000001 (
1)
b00010 ,
b00010 .
1/
b00010 0
b00000000000000000000000000000001 1
#1025000000
0!
0$
0)
0/
#1030000000
1!
b00000000000000000000000000000001 #
1$
b00000000000000000000000000000001 &
b00011 '
b00000000000000000000000000000010 (
1)
b00011 ,
b00011 .
1/
b00011 0
b00000000000000000000000000000010 1
#1035000000
0!
0$
0)
0/
#1040000000
1!
b00000000000000000000000000000010 #
1$
b00000000000000000000000000000010 &
b00100 '
b00000000000000000000000000000011 (
1)
b00100 ,
b00100 .
1/
b00100 0
b00000000000000000000000000000011 1
#1045000000
0!
0$
0)
0/
#1050000000
1!
b00000000000000000000000000000011 #
1$
b00000000000000000000000000000011 &
b00101 '
b00101010100010101010001010101010 (
1)
b00101 ,
b00101 .
1/
b00101 0
b00101010100010101010001010101010 1
#1055000000
0!
0$
0)
0/
#1060000000
1!
b00101010100010101010001010101010 #
1$
b00101010100010101010001010101010 &
b00110 '
b00101010100010101010001010101011 (
1)
b00110 ,
b00110 .
1/
b00110 0
b00101010100010101010001010101011 1
#1065000000
0!
0$
0)
0/
#1070000000
1!
b00101010100010101010001010101011 #
1$
b00101010100010101010001010101011 &
b00111 '
b10101010100010101010001010101010 (
1)
b00111 ,
b00111 .
1/
b00111 0
b10101010100010101010001010101010 1
#1075000000
0!
0$
0)
0/
#1080000000
1!
b10101010100010101010001010101010 #
1$
b10101010100010101010001010101010 &
b01000 '
b10101010100010101010001010101011 (
1)
b01000 ,
b01000 .
1/
b01000 0
b10101010100010101010001010101011 1
#1085000000
0!
0$
0)
0/
#1090000000
1!
b10101010100010101010001010101011 #
1$
b10101010100010101010001010101011 &
b01001 '
b00101010100010101010001010101010 (
1)
b01001 ,
b01001 .
1/
b01001 0
b00101010100010101010001010101010 1
#1095000000
0!
0$
0)
0/
#1100000000
1!
b00101010100010101010001010101010 #
1$
b00101010100010101010001010101010 &
b01010 '
b00101010100010101010001010101011 (
1)
b01010 ,
b01010 .
1/
b01010 0
b00101010100010101010001010101011 1
#1105000000
0!
0$
0)
0/
#1110000000
1!
b00101010100010101010001010101011 #
1$
b00101010100010101010001010101011 &
b01011 '
b10101010100010101010001010101010 (
1)
b01011 ,
b01011 .
1/
b01011 0
b10101010100010101010001010101010 1
#1115000000
0!
0$
0)
0/
#1120000000
1!
b10101010100010101010001010101010 #
1$
b10101010100010101010001010101010 &
b01100 '
b10101010100010101010001010101011 (
1)
b01100 ,
b01100 .
1/
b01100 0
b10101010100010101010001010101011 1
#1125000000
0!
0$
0)
0/
#1130000000
1!
b10101010100010101010001010101011 #
1$
b10101010100010101010001010101011 &
b01101 '
b00101010100010101010001010101010 (
1)
b01101 ,
b01101 .
1/
b01101 0
b00101010100010101010001010101010 1
#1135000000
0!
0$
0)
0/
#1140000000
1!
b00101010100010101010001010101010 #
1$
b00101010100010101010001010101010 &
b01110 '
b00101010100010101010001010101011 (
1)
b01110 ,
b01110 .
1/
b01110 0
b00101010100010101010001010101011 1
#1145000000
0!
0$
0)
0/
#1150000000
1!
b00101010100010101010001010101011 #
1$
b00101010100010101010001010101011 &
b01111 '
b10101010100010101010001010101010 (
1)
b01111 ,
b01111 .
1/
b01111 0
b10101010100010101010001010101010 1
#1155000000
0!
0$
0)
0/
#1160000000
1!
b10101010100010101010001010101010 #
1$
b10101010100010101010001010101010 &
b10000 '
b10101010100010101010001010101011 (
1)
b10000 ,
b10000 .
1/
b10000 0
b10101010100010101010001010101011 1
#1165000000
0!
0$
0)
0/
#1170000000
1!
1"
b10101010100010101010001010101011 #
1$
1%
b10101010100010101010001010101011 &
b00000 '
b00101010100010101010001010101010 (
1)
1*
b00000 ,
b00000 .
1/
b00000 0
b00101010100010101010001010101010 1
#1175000000
0!
0$
0)
0/
#1180000000
1!
0"
b00101010100010101010001010101010 #
1$
0%
b00101010100010101010001010101010 &
b00001 '
b00000000000000000000000000000000 (
1)
0*
b00001 ,
b00001 .
1/
b00001 0
b00000000000000000000000000000000 1
#1185000000
0!
0$
0)
0/
#1190000000
1!
b00000000000000000000000000000000 #
1$
b00000000000000000000000000000000 &
b00010 '
b00000000000000000000000000000001 (
1)
b00010 ,
b00010 .
1/
b00010 0
b00000000000000000000000000000001 1
#1195000000
0!
0$
0)
0/
#1200000000
1!
b00000000000000000000000000000001 #
1$
b00000000000000000000000000000001 &
b00011 '
b00000000000000000000000000000010 (
1)
b00011 ,
b00011 .
1/
b00011 0
b00000000000000000000000000000010 1
#1205000000
0!
0$
0)
0/
#1210000000
1!
b00000000000000000000000000000010 #
1$
b00000000000000000000000000000010 &
b00100 '
b00000000000000000000000000000011 (
1)
b00100 ,
b00100 .
1/
b00100 0
b00000000000000000000000000000011 1
#1215000000
0!
0$
0)
0/
